\BOOKMARK [0][]{chapter*.1}{摘　　要}{}% 1
\BOOKMARK [0][]{chapter*.2}{Abstract}{}% 2
\BOOKMARK [0][]{chapter.1}{1 绪论}{}% 3
\BOOKMARK [1][]{section.1.1}{1.1 研究背景}{chapter.1}% 4
\BOOKMARK [1][]{section.1.2}{1.2 研究现状}{chapter.1}% 5
\BOOKMARK [1][]{section.1.3}{1.3 本文研究内容}{chapter.1}% 6
\BOOKMARK [0][]{chapter.2}{2 流固共轭传热算法}{}% 7
\BOOKMARK [1][]{section.2.1}{2.1 低压缸共轭传热解法概述}{chapter.2}% 8
\BOOKMARK [1][]{section.2.2}{2.2 控制方程组}{chapter.2}% 9
\BOOKMARK [1][]{section.2.3}{2.3 离散化和数值求解过程}{chapter.2}% 10
\BOOKMARK [1][]{section.2.4}{2.4 本章小结}{chapter.2}% 11
\BOOKMARK [0][]{chapter.3}{3 低压缸温度场计算模型}{}% 12
\BOOKMARK [1][]{section.3.1}{3.1 低压缸结构及通流情况介绍}{chapter.3}% 13
\BOOKMARK [1][]{section.3.2}{3.2 模型重建}{chapter.3}% 14
\BOOKMARK [2][]{subsection.3.2.1}{3.2.1 叶片及主流道建模}{section.3.2}% 15
\BOOKMARK [2][]{subsection.3.2.2}{3.2.2 其余部分建模}{section.3.2}% 16
\BOOKMARK [1][]{section.3.3}{3.3 网格划分}{chapter.3}% 17
\BOOKMARK [2][]{subsection.3.3.1}{3.3.1 主流道网格划分}{section.3.3}% 18
\BOOKMARK [2][]{subsection.3.3.2}{3.3.2 其余域网格划分}{section.3.3}% 19
\BOOKMARK [1][]{section.3.4}{3.4 边界条件}{chapter.3}% 20
\BOOKMARK [2][]{subsection.3.4.1}{3.4.1 外缸外壁面边界}{section.3.4}% 21
\BOOKMARK [2][]{subsection.3.4.2}{3.4.2 对称边界与周期性边界}{section.3.4}% 22
\BOOKMARK [2][]{subsection.3.4.3}{3.4.3 扇形域交界面}{section.3.4}% 23
\BOOKMARK [1][]{section.3.5}{3.5 本章小结}{chapter.3}% 24
\BOOKMARK [0][]{chapter.4}{4 低压缸温度场数值求解}{}% 25
\BOOKMARK [1][]{section.4.1}{4.1 材料设置}{chapter.4}% 26
\BOOKMARK [2][]{subsection.4.1.1}{4.1.1 蒸汽}{section.4.1}% 27
\BOOKMARK [2][]{subsection.4.1.2}{4.1.2 汽缸及持环}{section.4.1}% 28
\BOOKMARK [1][]{section.4.2}{4.2 交界面模型}{chapter.4}% 29
\BOOKMARK [2][]{subsection.4.2.1}{4.2.1 流固与固固交界面}{section.4.2}% 30
\BOOKMARK [2][]{subsection.4.2.2}{4.2.2 流体域内交界面}{section.4.2}% 31
\BOOKMARK [1][]{section.4.3}{4.3 边界层处理}{chapter.4}% 32
\BOOKMARK [1][]{section.4.4}{4.4 本章小结}{chapter.4}% 33
\BOOKMARK [0][]{chapter.5}{5 数值计算结果分析}{}% 34
\BOOKMARK [1][]{section.5.1}{5.1 精度验证}{chapter.5}% 35
\BOOKMARK [2][]{subsection.5.1.1}{5.1.1 主流道蒸汽流动状态验证}{section.5.1}% 36
\BOOKMARK [2][]{subsection.5.1.2}{5.1.2 主流道边界层}{section.5.1}% 37
\BOOKMARK [2][]{subsection.5.1.3}{5.1.3 抽汽流道边界层}{section.5.1}% 38
\BOOKMARK [2][]{subsection.5.1.4}{5.1.4 进汽与排汽流道边界层}{section.5.1}% 39
\BOOKMARK [1][]{section.5.2}{5.2 结果分析}{chapter.5}% 40
\BOOKMARK [2][]{subsection.5.2.1}{5.2.1 流体域温度场}{section.5.2}% 41
\BOOKMARK [2][]{subsection.5.2.2}{5.2.2 固体域温度场}{section.5.2}% 42
\BOOKMARK [2][]{subsection.5.2.3}{5.2.3 对流换热系数}{section.5.2}% 43
\BOOKMARK [1][]{section.5.3}{5.3 本章小结}{chapter.5}% 44
\BOOKMARK [0][]{chapter*.4}{结　　论}{}% 45
\BOOKMARK [0][]{chapter*.5}{参考文献}{}% 46
\BOOKMARK [0][]{appendix*.6}{致　　谢}{}% 47
\BOOKMARK [0][]{appendix*.7}{大连理工大学学位论文版权使用授权书}{}% 48
