\relax 
\providecommand\hyper@newdestlabel[2]{}
\providecommand\HyperFirstAtBeginDocument{\AtBeginDocument}
\HyperFirstAtBeginDocument{\ifx\hyper@anchor\@undefined
\global\let\oldcontentsline\contentsline
\gdef\contentsline#1#2#3#4{\oldcontentsline{#1}{#2}{#3}}
\global\let\oldnewlabel\newlabel
\gdef\newlabel#1#2{\newlabelxx{#1}#2}
\gdef\newlabelxx#1#2#3#4#5#6{\oldnewlabel{#1}{{#2}{#3}}}
\AtEndDocument{\ifx\hyper@anchor\@undefined
\let\contentsline\oldcontentsline
\let\newlabel\oldnewlabel
\fi}
\fi}
\global\let\hyper@last\relax 
\gdef\HyperFirstAtBeginDocument#1{#1}
\providecommand*\HyPL@Entry[1]{}
\HyPL@Entry{0<</S/R>>}
\providecommand {\FN@pp@footnotehinttrue }{}
\providecommand {\FN@pp@footnote@aux }[2]{}
\FN@pp@footnotehinttrue 
\FN@pp@footnotehinttrue 
\FN@pp@footnotehinttrue 
\FN@pp@footnotehinttrue 
\HyPL@Entry{4<</S/R>>}
\FN@pp@footnotehinttrue 
\@writefile{toc}{\contentsline {chapter}{摘　　要}{I}{chapter*.1}}
\FN@pp@footnotehinttrue 
\FN@pp@footnotehinttrue 
\@writefile{toc}{\contentsline {chapter}{Abstract}{III}{chapter*.2}}
\FN@pp@footnotehinttrue 
\FN@pp@footnotehinttrue 
\FN@pp@footnotehinttrue 
\@input{body/chap01.aux}
\HyPL@Entry{10<</S/D>>}
\FN@pp@footnotehinttrue 
\FN@pp@footnotehinttrue 
\FN@pp@footnotehinttrue 
\@input{body/chap02.aux}
\FN@pp@footnotehinttrue 
\@input{body/chap03.aux}
\FN@pp@footnotehinttrue 
\@input{body/chap04.aux}
\FN@pp@footnotehinttrue 
\@input{body/chap05.aux}
\FN@pp@footnotehinttrue 
\@input{body/conclusion.aux}
\FN@pp@footnotehinttrue 
\bibstyle{buptbachelor}
\bibdata{body/reference}
\bibcite{RN1}{{1}{}{{}}{{}}}
\bibcite{RN2}{{2}{}{{}}{{}}}
\bibcite{RN3}{{3}{}{{}}{{}}}
\bibcite{RN4}{{4}{}{{}}{{}}}
\bibcite{RN5}{{5}{}{{}}{{}}}
\bibcite{RN6}{{6}{}{{}}{{}}}
\bibcite{RN7}{{7}{}{{}}{{}}}
\bibcite{RN8}{{8}{}{{}}{{}}}
\bibcite{RN9}{{9}{}{{}}{{}}}
\bibcite{RN10}{{10}{}{{}}{{}}}
\bibcite{RN11}{{11}{}{{}}{{}}}
\bibcite{RN12}{{12}{}{{}}{{}}}
\bibcite{RN13}{{13}{}{{}}{{}}}
\bibcite{RN14}{{14}{}{{}}{{}}}
\bibcite{RN15}{{15}{}{{}}{{}}}
\bibcite{RN16}{{16}{}{{}}{{}}}
\bibcite{RN17}{{17}{}{{}}{{}}}
\bibcite{RN18}{{18}{}{{}}{{}}}
\bibcite{RN19}{{19}{}{{}}{{}}}
\FN@pp@footnotehinttrue 
\FN@pp@footnotehinttrue 
\bibcite{RN20}{{20}{}{{}}{{}}}
\bibcite{RN21}{{21}{}{{}}{{}}}
\bibcite{RN22}{{22}{}{{}}{{}}}
\bibcite{RN23}{{23}{}{{}}{{}}}
\bibcite{RN24}{{24}{}{{}}{{}}}
\bibcite{RN25}{{25}{}{{}}{{}}}
\bibcite{RN26}{{26}{}{{}}{{}}}
\bibcite{RN27}{{27}{}{{}}{{}}}
\bibcite{RN28}{{28}{}{{}}{{}}}
\bibcite{RN29}{{29}{}{{}}{{}}}
\bibcite{RN30}{{30}{}{{}}{{}}}
\bibcite{RN31}{{31}{}{{}}{{}}}
\bibcite{RN32}{{32}{}{{}}{{}}}
\bibcite{RN33}{{33}{}{{}}{{}}}
\bibcite{RN34}{{34}{}{{}}{{}}}
\bibcite{RN35}{{35}{}{{}}{{}}}
\bibcite{RN36}{{36}{}{{}}{{}}}
\bibcite{RN37}{{37}{}{{}}{{}}}
\bibcite{RN38}{{38}{}{{}}{{}}}
\bibcite{RN39}{{39}{}{{}}{{}}}
\bibcite{RN40}{{40}{}{{}}{{}}}
\bibcite{RN41}{{41}{}{{}}{{}}}
\bibcite{RN42}{{42}{}{{}}{{}}}
\bibcite{RN43}{{43}{}{{}}{{}}}
\bibcite{RN44}{{44}{}{{}}{{}}}
\bibcite{RN45}{{45}{}{{}}{{}}}
\bibcite{RN46}{{46}{}{{}}{{}}}
\bibcite{RN47}{{47}{}{{}}{{}}}
\@writefile{toc}{\contentsline {chapter}{参考文献}{59}{chapter*.5}}
\FN@pp@footnotehinttrue 
\@input{appendix/acknowledgements.aux}
\FN@pp@footnotehinttrue 
\FN@pp@footnotehinttrue 
\FN@pp@footnotehinttrue 
\FN@pp@footnotehinttrue 
\FN@pp@footnotehinttrue 
\FN@pp@footnotehinttrue 
\@writefile{toc}{\contentsline {chapter}{大连理工大学学位论文版权使用授权书}{63}{appendix*.7}}
\FN@pp@footnotehinttrue 
\providecommand\NAT@force@numbers{}\NAT@force@numbers
\ttl@finishall
