\contentsline {chapter}{摘　　要}{I}{chapter*.1}
\contentsline {chapter}{Abstract}{III}{chapter*.2}
\contentsline {chapter}{\numberline {1}绪论}{1}{chapter.1}
\contentsline {section}{\numberline {1.1}研究背景}{1}{section.1.1}
\contentsline {section}{\numberline {1.2}研究现状}{1}{section.1.2}
\contentsline {section}{\numberline {1.3}本文研究内容}{4}{section.1.3}
\contentsline {chapter}{\numberline {2}流固共轭传热算法}{5}{chapter.2}
\contentsline {section}{\numberline {2.1}低压缸共轭传热解法概述}{5}{section.2.1}
\contentsline {section}{\numberline {2.2}控制方程组}{6}{section.2.2}
\contentsline {section}{\numberline {2.3}离散化和数值求解过程}{9}{section.2.3}
\contentsline {section}{\numberline {2.4}本章小结}{12}{section.2.4}
\contentsline {chapter}{\numberline {3}低压缸温度场计算模型}{13}{chapter.3}
\contentsline {section}{\numberline {3.1}低压缸结构及通流情况介绍}{13}{section.3.1}
\contentsline {section}{\numberline {3.2}模型重建}{15}{section.3.2}
\contentsline {subsection}{\numberline {3.2.1}叶片及主流道建模}{15}{subsection.3.2.1}
\contentsline {subsection}{\numberline {3.2.2}其余部分建模}{16}{subsection.3.2.2}
\contentsline {section}{\numberline {3.3}网格划分}{19}{section.3.3}
\contentsline {subsection}{\numberline {3.3.1}主流道网格划分}{19}{subsection.3.3.1}
\contentsline {subsection}{\numberline {3.3.2}其余域网格划分}{20}{subsection.3.3.2}
\contentsline {section}{\numberline {3.4}边界条件}{24}{section.3.4}
\contentsline {subsection}{\numberline {3.4.1}外缸外壁面边界}{24}{subsection.3.4.1}
\contentsline {subsection}{\numberline {3.4.2}对称边界与周期性边界}{25}{subsection.3.4.2}
\contentsline {subsection}{\numberline {3.4.3}扇形域交界面}{26}{subsection.3.4.3}
\contentsline {section}{\numberline {3.5}本章小结}{27}{section.3.5}
\contentsline {chapter}{\numberline {4}低压缸温度场数值求解}{28}{chapter.4}
\contentsline {section}{\numberline {4.1}材料设置}{28}{section.4.1}
\contentsline {subsection}{\numberline {4.1.1}蒸汽}{28}{subsection.4.1.1}
\contentsline {subsection}{\numberline {4.1.2}汽缸及持环}{30}{subsection.4.1.2}
\contentsline {section}{\numberline {4.2}交界面模型}{31}{section.4.2}
\contentsline {subsection}{\numberline {4.2.1}流固与固固交界面}{31}{subsection.4.2.1}
\contentsline {subsection}{\numberline {4.2.2}流体域内交界面}{31}{subsection.4.2.2}
\contentsline {section}{\numberline {4.3}边界层处理}{32}{section.4.3}
\contentsline {section}{\numberline {4.4}本章小结}{34}{section.4.4}
\contentsline {chapter}{\numberline {5}数值计算结果分析}{36}{chapter.5}
\contentsline {section}{\numberline {5.1}精度验证}{36}{section.5.1}
\contentsline {subsection}{\numberline {5.1.1}主流道蒸汽流动状态验证}{36}{subsection.5.1.1}
\contentsline {subsection}{\numberline {5.1.2}主流道边界层}{39}{subsection.5.1.2}
\contentsline {subsection}{\numberline {5.1.3}抽汽流道边界层}{40}{subsection.5.1.3}
\contentsline {subsection}{\numberline {5.1.4}进汽与排汽流道边界层}{42}{subsection.5.1.4}
\contentsline {section}{\numberline {5.2}结果分析}{43}{section.5.2}
\contentsline {subsection}{\numberline {5.2.1}流体域温度场}{43}{subsection.5.2.1}
\contentsline {subsection}{\numberline {5.2.2}固体域温度场}{47}{subsection.5.2.2}
\contentsline {subsection}{\numberline {5.2.3}对流换热系数}{49}{subsection.5.2.3}
\contentsline {section}{\numberline {5.3}本章小结}{54}{section.5.3}
\contentsline {chapter}{结　　论}{56}{chapter*.4}
\contentsline {chapter}{参考文献}{59}{chapter*.5}
\contentsline {chapter}{致　　谢}{61}{appendix*.6}
\contentsline {chapter}{大连理工大学学位论文版权使用授权书}{63}{appendix*.7}
\contentsfinish 
