\relax 
\providecommand\hyper@newdestlabel[2]{}
\FN@pp@footnotehinttrue 
\@writefile{toc}{\contentsline {chapter}{\numberline {3}低压缸温度场计算模型}{13}{chapter.3}}
\@writefile{lof}{\addvspace {10\p@ }}
\@writefile{lot}{\addvspace {10\p@ }}
\newlabel{chap03}{{3}{13}{低压缸温度场计算模型}{chapter.3}{}}
\@writefile{toc}{\contentsline {section}{\numberline {3.1}低压缸结构及通流情况介绍}{13}{section.3.1}}
\@writefile{lof}{\contentsline {figure}{\numberline {3.1}{\ignorespaces 图}}{13}{figure.3.1}}
\newlabel{fig:外缸半剖图}{{3.1}{13}{低压缸结构及通流情况介绍}{figure.3.1}{}}
\@writefile{lof}{\contentsline {figure}{\numberline {3.2}{\ignorespaces 图}}{14}{figure.3.2}}
\newlabel{fig:内缸半剖图}{{3.2}{14}{低压缸结构及通流情况介绍}{figure.3.2}{}}
\@writefile{lof}{\contentsline {figure}{\numberline {3.3}{\ignorespaces 图}}{14}{figure.3.3}}
\newlabel{fig:低压缸内部流动示意图}{{3.3}{14}{低压缸结构及通流情况介绍}{figure.3.3}{}}
\@writefile{toc}{\contentsline {section}{\numberline {3.2}模型重建}{15}{section.3.2}}
\@writefile{lof}{\contentsline {figure}{\numberline {3.4}{\ignorespaces 图}}{15}{figure.3.4}}
\newlabel{fig:计算用低压缸模型结构图}{{3.4}{15}{模型重建}{figure.3.4}{}}
\@writefile{toc}{\contentsline {subsection}{\numberline {3.2.1}叶片及主流道建模}{15}{subsection.3.2.1}}
\@writefile{lof}{\contentsline {figure}{\numberline {3.5}{\ignorespaces 图}}{16}{figure.3.5}}
\newlabel{fig:扭叶片建模}{{3.5}{16}{叶片及主流道建模}{figure.3.5}{}}
\@writefile{lof}{\contentsline {figure}{\numberline {3.6}{\ignorespaces 图}}{16}{figure.3.6}}
\newlabel{fig:型线积叠法造型}{{3.6}{16}{叶片及主流道建模}{figure.3.6}{}}
\@writefile{toc}{\contentsline {subsection}{\numberline {3.2.2}其余部分建模}{16}{subsection.3.2.2}}
\newlabel{fig:7-1}{{3.7(a)}{17}{其余部分建模}{subfigure.3.7.1}{}}
\newlabel{sub@fig:7-1}{{(a)}{17}{其余部分建模\relax }{subfigure.3.7.1}{}}
\newlabel{fig:7-2}{{3.7(b)}{17}{其余部分建模}{subfigure.3.7.2}{}}
\newlabel{sub@fig:7-2}{{(b)}{17}{其余部分建模\relax }{subfigure.3.7.2}{}}
\newlabel{fig:7-3}{{3.7(c)}{17}{其余部分建模}{subfigure.3.7.3}{}}
\newlabel{sub@fig:7-3}{{(c)}{17}{其余部分建模\relax }{subfigure.3.7.3}{}}
\newlabel{fig:7-4}{{3.7(d)}{17}{其余部分建模}{subfigure.3.7.4}{}}
\newlabel{sub@fig:7-4}{{(d)}{17}{其余部分建模\relax }{subfigure.3.7.4}{}}
\newlabel{fig:7-5}{{3.7(e)}{17}{其余部分建模}{subfigure.3.7.5}{}}
\newlabel{sub@fig:7-5}{{(e)}{17}{其余部分建模\relax }{subfigure.3.7.5}{}}
\newlabel{fig:7-6}{{3.7(f)}{18}{其余部分建模}{subfigure.3.7.6}{}}
\newlabel{sub@fig:7-6}{{(f)}{18}{其余部分建模\relax }{subfigure.3.7.6}{}}
\newlabel{fig:7-7}{{3.7(g)}{18}{其余部分建模}{subfigure.3.7.7}{}}
\newlabel{sub@fig:7-7}{{(g)}{18}{其余部分建模\relax }{subfigure.3.7.7}{}}
\newlabel{fig:7-8}{{3.7(h)}{18}{其余部分建模}{subfigure.3.7.8}{}}
\newlabel{sub@fig:7-8}{{(h)}{18}{其余部分建模\relax }{subfigure.3.7.8}{}}
\@writefile{lof}{\contentsline {figure}{\numberline {3.7}{\ignorespaces 图}}{18}{figure.3.7}}
\@writefile{lof}{\contentsline {subfigure}{\numberline{(a)}{\ignorespaces F1}}{18}{figure.3.7}}
\@writefile{lof}{\contentsline {subfigure}{\numberline{(b)}{\ignorespaces F2}}{18}{figure.3.7}}
\@writefile{lof}{\contentsline {subfigure}{\numberline{(c)}{\ignorespaces F3}}{18}{figure.3.7}}
\@writefile{lof}{\contentsline {subfigure}{\numberline{(d)}{\ignorespaces F4}}{18}{figure.3.7}}
\@writefile{lof}{\contentsline {subfigure}{\numberline{(e)}{\ignorespaces F5}}{18}{figure.3.7}}
\@writefile{lof}{\contentsline {subfigure}{\numberline{(f)}{\ignorespaces 持环}}{18}{figure.3.7}}
\@writefile{lof}{\contentsline {subfigure}{\numberline{(g)}{\ignorespaces 内缸}}{18}{figure.3.7}}
\@writefile{lof}{\contentsline {subfigure}{\numberline{(h)}{\ignorespaces 外缸}}{18}{figure.3.7}}
\newlabel{fig:各部分计算模型}{{3.7}{18}{其余部分建模}{figure.3.7}{}}
\@writefile{lof}{\contentsline {figure}{\numberline {3.8}{\ignorespaces 图}}{19}{figure.3.8}}
\newlabel{fig:抽汽流道与主流道连接}{{3.8}{19}{其余部分建模}{figure.3.8}{}}
\@writefile{toc}{\contentsline {section}{\numberline {3.3}网格划分}{19}{section.3.3}}
\@writefile{toc}{\contentsline {subsection}{\numberline {3.3.1}主流道网格划分}{19}{subsection.3.3.1}}
\@writefile{lof}{\contentsline {figure}{\numberline {3.9}{\ignorespaces 图}}{19}{figure.3.9}}
\newlabel{fig:Turbogrid生成的叶顶网格}{{3.9}{19}{主流道网格划分}{figure.3.9}{}}
\@writefile{lof}{\contentsline {figure}{\numberline {3.10}{\ignorespaces 图}}{20}{figure.3.10}}
\newlabel{fig:Turbogrid生成的侧面网格}{{3.10}{20}{主流道网格划分}{figure.3.10}{}}
\@writefile{toc}{\contentsline {subsection}{\numberline {3.3.2}其余域网格划分}{20}{subsection.3.3.2}}
\@writefile{lof}{\contentsline {figure}{\numberline {3.11}{\ignorespaces 图}}{21}{figure.3.11}}
\newlabel{fig:F1网格及边界层网格}{{3.11}{21}{其余域网格划分}{figure.3.11}{}}
\@writefile{lof}{\contentsline {figure}{\numberline {3.12}{\ignorespaces 图}}{21}{figure.3.12}}
\newlabel{fig:F2面网格及对称截面网格}{{3.12}{21}{其余域网格划分}{figure.3.12}{}}
\@writefile{lof}{\contentsline {figure}{\numberline {3.13}{\ignorespaces 图}}{22}{figure.3.13}}
\newlabel{fig:F3网格}{{3.13}{22}{其余域网格划分}{figure.3.13}{}}
\@writefile{lof}{\contentsline {figure}{\numberline {3.14}{\ignorespaces 图}}{22}{figure.3.14}}
\newlabel{fig:F4部分网格}{{3.14}{22}{其余域网格划分}{figure.3.14}{}}
\@writefile{lof}{\contentsline {figure}{\numberline {3.15}{\ignorespaces 图}}{23}{figure.3.15}}
\newlabel{fig:F5网格}{{3.15}{23}{其余域网格划分}{figure.3.15}{}}
\@writefile{lof}{\contentsline {figure}{\numberline {3.16}{\ignorespaces 图}}{23}{figure.3.16}}
\newlabel{fig:持环网格}{{3.16}{23}{其余域网格划分}{figure.3.16}{}}
\citation{RN44}
\citation{RN44}
\newlabel{fig:17-1}{{3.17(a)}{24}{其余域网格划分}{subfigure.3.17.1}{}}
\newlabel{sub@fig:17-1}{{(a)}{24}{其余域网格划分\relax }{subfigure.3.17.1}{}}
\newlabel{fig:17-2}{{3.17(b)}{24}{其余域网格划分}{subfigure.3.17.2}{}}
\newlabel{sub@fig:17-2}{{(b)}{24}{其余域网格划分\relax }{subfigure.3.17.2}{}}
\@writefile{lof}{\contentsline {figure}{\numberline {3.17}{\ignorespaces 图}}{24}{figure.3.17}}
\@writefile{lof}{\contentsline {subfigure}{\numberline{(a)}{\ignorespaces 内缸}}{24}{figure.3.17}}
\@writefile{lof}{\contentsline {subfigure}{\numberline{(b)}{\ignorespaces 外缸}}{24}{figure.3.17}}
\newlabel{fig:内缸和外缸网格}{{3.17}{24}{其余域网格划分}{figure.3.17}{}}
\@writefile{toc}{\contentsline {section}{\numberline {3.4}边界条件}{24}{section.3.4}}
\@writefile{toc}{\contentsline {subsection}{\numberline {3.4.1}外缸外壁面边界}{24}{subsection.3.4.1}}
\@writefile{lot}{\contentsline {table}{\numberline {3.1}{\ignorespaces 表}}{25}{table.3.1}}
\newlabel{tab:不同条件下$ C $、$ n $取值表}{{3.1}{25}{外缸外壁面边界}{table.3.1}{}}
\@writefile{toc}{\contentsline {subsection}{\numberline {3.4.2}对称边界与周期性边界}{25}{subsection.3.4.2}}
\@writefile{lof}{\contentsline {figure}{\numberline {3.18}{\ignorespaces 图}}{26}{figure.3.18}}
\newlabel{fig:F1对称边界}{{3.18}{26}{对称边界与周期性边界}{figure.3.18}{}}
\@writefile{lof}{\contentsline {figure}{\numberline {3.19}{\ignorespaces 图}}{26}{figure.3.19}}
\newlabel{fig:周期边界}{{3.19}{26}{对称边界与周期性边界}{figure.3.19}{}}
\@writefile{toc}{\contentsline {subsection}{\numberline {3.4.3}扇形域交界面}{26}{subsection.3.4.3}}
\@writefile{toc}{\contentsline {section}{\numberline {3.5}本章小结}{27}{section.3.5}}
\FN@pp@footnotehinttrue 
\@setckpt{body/chap03}{
\setcounter{page}{28}
\setcounter{equation}{1}
\setcounter{enumi}{3}
\setcounter{enumii}{0}
\setcounter{enumiii}{0}
\setcounter{enumiv}{0}
\setcounter{footnote}{0}
\setcounter{mpfootnote}{0}
\setcounter{part}{0}
\setcounter{chapter}{3}
\setcounter{section}{5}
\setcounter{subsection}{0}
\setcounter{subsubsection}{0}
\setcounter{paragraph}{0}
\setcounter{subparagraph}{0}
\setcounter{figure}{19}
\setcounter{table}{1}
\setcounter{parentequation}{0}
\setcounter{vrcnt}{0}
\setcounter{pp@next@reset}{1}
\setcounter{@fnserial}{0}
\setcounter{FancyVerbLine}{0}
\setcounter{endNonectr}{32}
\setcounter{currNonectr}{0}
\setcounter{r@tfl@t}{0}
\setcounter{subfigure}{0}
\setcounter{lofdepth}{1}
\setcounter{subtable}{0}
\setcounter{lotdepth}{1}
\setcounter{@contsubnum}{2}
\setcounter{newflo@tctr}{4}
\setcounter{lstnumber}{1}
\setcounter{Item}{15}
\setcounter{Hfootnote}{0}
\setcounter{Hy@AnnotLevel}{0}
\setcounter{bookmark@seq@number}{24}
\setcounter{NAT@ctr}{0}
\setcounter{float@type}{8}
\setcounter{currdefinitionctr}{0}
\setcounter{enddefinitionctr}{0}
\setcounter{definition}{0}
\setcounter{currexamplectr}{0}
\setcounter{endexamplectr}{0}
\setcounter{example}{0}
\setcounter{curralgorithmctr}{0}
\setcounter{endalgorithmctr}{0}
\setcounter{algorithm}{0}
\setcounter{currtheoremctr}{0}
\setcounter{endtheoremctr}{0}
\setcounter{theorem}{0}
\setcounter{curraxiomctr}{0}
\setcounter{endaxiomctr}{0}
\setcounter{axiom}{0}
\setcounter{currpropositionctr}{0}
\setcounter{endpropositionctr}{0}
\setcounter{currpropertyctr}{0}
\setcounter{endpropertyctr}{0}
\setcounter{property}{0}
\setcounter{currlemmactr}{0}
\setcounter{endlemmactr}{0}
\setcounter{currcorollaryctr}{0}
\setcounter{endcorollaryctr}{0}
\setcounter{corollary}{0}
\setcounter{currremarkctr}{0}
\setcounter{endremarkctr}{0}
\setcounter{remark}{0}
\setcounter{lstlisting}{0}
\setcounter{section@level}{0}
}
