\relax 
\providecommand\hyper@newdestlabel[2]{}
\citation{RN1}
\citation{RN1}
\citation{RN2}
\citation{RN2}
\citation{RN3,RN4,RN5}
\citation{RN3}
\citation{RN4}
\citation{RN5}
\citation{RN6}
\citation{RN6}
\citation{RN7}
\citation{RN7}
\FN@pp@footnotehinttrue 
\@writefile{toc}{\contentsline {chapter}{\numberline {1}绪论}{1}{chapter.1}}
\@writefile{lof}{\addvspace {10\p@ }}
\@writefile{lot}{\addvspace {10\p@ }}
\newlabel{chap01}{{1}{1}{绪论}{chapter.1}{}}
\@writefile{toc}{\contentsline {section}{\numberline {1.1}研究背景}{1}{section.1.1}}
\@writefile{toc}{\contentsline {section}{\numberline {1.2}研究现状}{1}{section.1.2}}
\citation{RN8}
\citation{RN8}
\citation{RN9,RN10}
\citation{RN9}
\citation{RN10}
\citation{RN11,RN12,RN13,RN14,RN15}
\citation{RN11}
\citation{RN12}
\citation{RN13}
\citation{RN14}
\citation{RN15}
\citation{RN16,RN17}
\citation{RN16}
\citation{RN17}
\citation{RN18}
\citation{RN18}
\citation{RN19}
\citation{RN19}
\citation{RN20}
\citation{RN20}
\citation{RN21}
\citation{RN21}
\citation{RN22}
\citation{RN22}
\citation{RN23}
\citation{RN23}
\citation{RN6}
\citation{RN6}
\citation{RN24}
\citation{RN24}
\citation{RN25,RN26}
\citation{RN25}
\citation{RN26}
\citation{RN27}
\citation{RN27}
\citation{RN28}
\citation{RN28}
\citation{RN29,RN30}
\citation{RN29}
\citation{RN30}
\citation{RN31}
\citation{RN31}
\citation{RN32}
\citation{RN32}
\citation{RN33}
\citation{RN33}
\citation{RN34}
\citation{RN34}
\@writefile{toc}{\contentsline {section}{\numberline {1.3}本文研究内容}{4}{section.1.3}}
\FN@pp@footnotehinttrue 
\@setckpt{body/chap01}{
\setcounter{page}{5}
\setcounter{equation}{0}
\setcounter{enumi}{2}
\setcounter{enumii}{0}
\setcounter{enumiii}{0}
\setcounter{enumiv}{0}
\setcounter{footnote}{0}
\setcounter{mpfootnote}{0}
\setcounter{part}{0}
\setcounter{chapter}{1}
\setcounter{section}{3}
\setcounter{subsection}{0}
\setcounter{subsubsection}{0}
\setcounter{paragraph}{0}
\setcounter{subparagraph}{0}
\setcounter{figure}{0}
\setcounter{table}{0}
\setcounter{parentequation}{0}
\setcounter{vrcnt}{0}
\setcounter{pp@next@reset}{1}
\setcounter{@fnserial}{0}
\setcounter{FancyVerbLine}{0}
\setcounter{endNonectr}{5}
\setcounter{currNonectr}{0}
\setcounter{r@tfl@t}{0}
\setcounter{subfigure}{0}
\setcounter{lofdepth}{1}
\setcounter{subtable}{0}
\setcounter{lotdepth}{1}
\setcounter{@contsubnum}{0}
\setcounter{newflo@tctr}{4}
\setcounter{lstnumber}{1}
\setcounter{Item}{2}
\setcounter{Hfootnote}{0}
\setcounter{Hy@AnnotLevel}{0}
\setcounter{bookmark@seq@number}{6}
\setcounter{NAT@ctr}{0}
\setcounter{float@type}{8}
\setcounter{currdefinitionctr}{0}
\setcounter{enddefinitionctr}{0}
\setcounter{definition}{0}
\setcounter{currexamplectr}{0}
\setcounter{endexamplectr}{0}
\setcounter{example}{0}
\setcounter{curralgorithmctr}{0}
\setcounter{endalgorithmctr}{0}
\setcounter{algorithm}{0}
\setcounter{currtheoremctr}{0}
\setcounter{endtheoremctr}{0}
\setcounter{theorem}{0}
\setcounter{curraxiomctr}{0}
\setcounter{endaxiomctr}{0}
\setcounter{axiom}{0}
\setcounter{currpropositionctr}{0}
\setcounter{endpropositionctr}{0}
\setcounter{currpropertyctr}{0}
\setcounter{endpropertyctr}{0}
\setcounter{property}{0}
\setcounter{currlemmactr}{0}
\setcounter{endlemmactr}{0}
\setcounter{currcorollaryctr}{0}
\setcounter{endcorollaryctr}{0}
\setcounter{corollary}{0}
\setcounter{currremarkctr}{0}
\setcounter{endremarkctr}{0}
\setcounter{remark}{0}
\setcounter{lstlisting}{0}
\setcounter{section@level}{0}
}
