\relax 
\providecommand\hyper@newdestlabel[2]{}
\FN@pp@footnotehinttrue 
\@writefile{toc}{\contentsline {chapter}{\numberline {5}数值计算结果分析}{36}{chapter.5}}
\@writefile{lof}{\addvspace {10\p@ }}
\@writefile{lot}{\addvspace {10\p@ }}
\@writefile{toc}{\contentsline {section}{\numberline {5.1}精度验证}{36}{section.5.1}}
\@writefile{toc}{\contentsline {subsection}{\numberline {5.1.1}主流道蒸汽流动状态验证}{36}{subsection.5.1.1}}
\@writefile{lof}{\contentsline {figure}{\numberline {5.1}{\ignorespaces 图}}{36}{figure.5.1}}
\newlabel{fig:前三级流速矢量图（叶高900mm处）}{{5.1}{36}{主流道蒸汽流动状态验证}{figure.5.1}{}}
\@writefile{lof}{\contentsline {figure}{\numberline {5.2}{\ignorespaces 图}}{37}{figure.5.2}}
\newlabel{fig:后三级流速矢量图（叶高900mm处）}{{5.2}{37}{主流道蒸汽流动状态验证}{figure.5.2}{}}
\@writefile{lof}{\contentsline {figure}{\numberline {5.3}{\ignorespaces 图}}{37}{figure.5.3}}
\newlabel{fig:主流道温度云图（900mm叶高处）}{{5.3}{37}{主流道蒸汽流动状态验证}{figure.5.3}{}}
\@writefile{lof}{\contentsline {figure}{\numberline {5.4}{\ignorespaces 图}}{38}{figure.5.4}}
\newlabel{fig:主流道压力云图（900mm叶高处）}{{5.4}{38}{主流道蒸汽流动状态验证}{figure.5.4}{}}
\@writefile{lof}{\contentsline {figure}{\numberline {5.5}{\ignorespaces 图}}{38}{figure.5.5}}
\newlabel{fig:主流道温度比较图}{{5.5}{38}{主流道蒸汽流动状态验证}{figure.5.5}{}}
\@writefile{lof}{\contentsline {figure}{\numberline {5.6}{\ignorespaces 图}}{39}{figure.5.6}}
\newlabel{fig:主流道压力比较图}{{5.6}{39}{主流道蒸汽流动状态验证}{figure.5.6}{}}
\@writefile{toc}{\contentsline {subsection}{\numberline {5.1.2}主流道边界层}{39}{subsection.5.1.2}}
\@writefile{lof}{\contentsline {figure}{\numberline {5.7}{\ignorespaces 图}}{39}{figure.5.7}}
\newlabel{fig:主流道前三级$ Y+ $值}{{5.7}{39}{主流道边界层}{figure.5.7}{}}
\@writefile{lof}{\contentsline {figure}{\numberline {5.8}{\ignorespaces 图}}{40}{figure.5.8}}
\newlabel{fig:主流道后三级$ Y+ $值}{{5.8}{40}{主流道边界层}{figure.5.8}{}}
\@writefile{toc}{\contentsline {subsection}{\numberline {5.1.3}抽汽流道边界层}{40}{subsection.5.1.3}}
\@writefile{lof}{\contentsline {figure}{\numberline {5.9}{\ignorespaces 图}}{40}{figure.5.9}}
\newlabel{fig:F2$ Y+ $值云图}{{5.9}{40}{抽汽流道边界层}{figure.5.9}{}}
\@writefile{lof}{\contentsline {figure}{\numberline {5.10}{\ignorespaces 图}}{41}{figure.5.10}}
\newlabel{fig:F4$ Y+ $值云图}{{5.10}{41}{抽汽流道边界层}{figure.5.10}{}}
\@writefile{lof}{\contentsline {figure}{\numberline {5.11}{\ignorespaces 图}}{41}{figure.5.11}}
\newlabel{fig:F4流线图}{{5.11}{41}{抽汽流道边界层}{figure.5.11}{}}
\@writefile{toc}{\contentsline {subsection}{\numberline {5.1.4}进汽与排汽流道边界层}{42}{subsection.5.1.4}}
\@writefile{lof}{\contentsline {figure}{\numberline {5.12}{\ignorespaces 图}}{42}{figure.5.12}}
\newlabel{fig:F1$ Y+ $值云图}{{5.12}{42}{进汽与排汽流道边界层}{figure.5.12}{}}
\@writefile{lof}{\contentsline {figure}{\numberline {5.13}{\ignorespaces 图}}{43}{figure.5.13}}
\newlabel{fig:F5内缸壁面$ Y+ $值云图}{{5.13}{43}{进汽与排汽流道边界层}{figure.5.13}{}}
\@writefile{lof}{\contentsline {figure}{\numberline {5.14}{\ignorespaces 图}}{43}{figure.5.14}}
\newlabel{fig:F5外缸壁面$ Y+ $值云图}{{5.14}{43}{进汽与排汽流道边界层}{figure.5.14}{}}
\@writefile{toc}{\contentsline {section}{\numberline {5.2}结果分析}{43}{section.5.2}}
\@writefile{toc}{\contentsline {subsection}{\numberline {5.2.1}流体域温度场}{43}{subsection.5.2.1}}
\@writefile{lof}{\contentsline {figure}{\numberline {5.15}{\ignorespaces 图}}{44}{figure.5.15}}
\newlabel{fig:F1温度分布}{{5.15}{44}{流体域温度场}{figure.5.15}{}}
\@writefile{lof}{\contentsline {figure}{\numberline {5.16}{\ignorespaces 图}}{44}{figure.5.16}}
\newlabel{fig:F1流线图}{{5.16}{44}{流体域温度场}{figure.5.16}{}}
\@writefile{lof}{\contentsline {figure}{\numberline {5.17}{\ignorespaces 图}}{45}{figure.5.17}}
\newlabel{fig:F2温度云图}{{5.17}{45}{流体域温度场}{figure.5.17}{}}
\@writefile{lof}{\contentsline {figure}{\numberline {5.18}{\ignorespaces 图}}{45}{figure.5.18}}
\newlabel{fig:F2压力云图}{{5.18}{45}{流体域温度场}{figure.5.18}{}}
\@writefile{lof}{\contentsline {figure}{\numberline {5.19}{\ignorespaces 图}}{46}{figure.5.19}}
\newlabel{fig:F4温度与压力云图}{{5.19}{46}{流体域温度场}{figure.5.19}{}}
\@writefile{lof}{\contentsline {figure}{\numberline {5.20}{\ignorespaces 图}}{46}{figure.5.20}}
\newlabel{fig:F5温度分布}{{5.20}{46}{流体域温度场}{figure.5.20}{}}
\@writefile{lof}{\contentsline {figure}{\numberline {5.21}{\ignorespaces 图}}{47}{figure.5.21}}
\newlabel{fig:F5压力云图}{{5.21}{47}{流体域温度场}{figure.5.21}{}}
\@writefile{lof}{\contentsline {figure}{\numberline {5.22}{\ignorespaces 图}}{47}{figure.5.22}}
\newlabel{fig:F5对称面压力云图}{{5.22}{47}{流体域温度场}{figure.5.22}{}}
\@writefile{toc}{\contentsline {subsection}{\numberline {5.2.2}固体域温度场}{47}{subsection.5.2.2}}
\@writefile{lof}{\contentsline {figure}{\numberline {5.23}{\ignorespaces 图}}{48}{figure.5.23}}
\newlabel{fig:持环温度场}{{5.23}{48}{固体域温度场}{figure.5.23}{}}
\@writefile{lof}{\contentsline {figure}{\numberline {5.24}{\ignorespaces 图}}{48}{figure.5.24}}
\newlabel{fig:内缸温度场}{{5.24}{48}{固体域温度场}{figure.5.24}{}}
\@writefile{lof}{\contentsline {figure}{\numberline {5.25}{\ignorespaces 图}}{49}{figure.5.25}}
\newlabel{fig:外缸温度场}{{5.25}{49}{固体域温度场}{figure.5.25}{}}
\@writefile{lof}{\contentsline {figure}{\numberline {5.26}{\ignorespaces 图}}{49}{figure.5.26}}
\newlabel{fig:调整标尺后的外缸温度场}{{5.26}{49}{固体域温度场}{figure.5.26}{}}
\@writefile{toc}{\contentsline {subsection}{\numberline {5.2.3}对流换热系数}{49}{subsection.5.2.3}}
\@writefile{lof}{\contentsline {figure}{\numberline {5.27}{\ignorespaces 图}}{50}{figure.5.27}}
\newlabel{fig:主流道前三级与持环耦合面对流换热系数}{{5.27}{50}{对流换热系数}{figure.5.27}{}}
\@writefile{lof}{\contentsline {figure}{\numberline {5.28}{\ignorespaces 图}}{50}{figure.5.28}}
\newlabel{fig:主流道后三级与持环、内缸耦合面对流换热系数}{{5.28}{50}{对流换热系数}{figure.5.28}{}}
\@writefile{lof}{\contentsline {figure}{\numberline {5.29}{\ignorespaces 图}}{51}{figure.5.29}}
\newlabel{fig:F1换热系数分布}{{5.29}{51}{对流换热系数}{figure.5.29}{}}
\@writefile{lof}{\contentsline {figure}{\numberline {5.30}{\ignorespaces 图}}{51}{figure.5.30}}
\newlabel{fig:F2壁面对流换热系数云图}{{5.30}{51}{对流换热系数}{figure.5.30}{}}
\@writefile{lof}{\contentsline {figure}{\numberline {5.31}{\ignorespaces 图}}{52}{figure.5.31}}
\newlabel{fig:F2流线图}{{5.31}{52}{对流换热系数}{figure.5.31}{}}
\@writefile{lof}{\contentsline {figure}{\numberline {5.32}{\ignorespaces 图}}{53}{figure.5.32}}
\newlabel{fig:F4对流换热系数云图}{{5.32}{53}{对流换热系数}{figure.5.32}{}}
\@writefile{lof}{\contentsline {figure}{\numberline {5.33}{\ignorespaces 图}}{53}{figure.5.33}}
\newlabel{fig:F5与内缸外壁面换热系数}{{5.33}{53}{对流换热系数}{figure.5.33}{}}
\@writefile{lof}{\contentsline {figure}{\numberline {5.34}{\ignorespaces 图}}{54}{figure.5.34}}
\newlabel{fig:F5与内缸外壁面换热系数}{{5.34}{54}{对流换热系数}{figure.5.34}{}}
\@writefile{toc}{\contentsline {section}{\numberline {5.3}本章小结}{54}{section.5.3}}
\FN@pp@footnotehinttrue 
\@setckpt{body/chap05}{
\setcounter{page}{56}
\setcounter{equation}{2}
\setcounter{enumi}{3}
\setcounter{enumii}{0}
\setcounter{enumiii}{0}
\setcounter{enumiv}{0}
\setcounter{footnote}{0}
\setcounter{mpfootnote}{0}
\setcounter{part}{0}
\setcounter{chapter}{5}
\setcounter{section}{3}
\setcounter{subsection}{0}
\setcounter{subsubsection}{0}
\setcounter{paragraph}{0}
\setcounter{subparagraph}{0}
\setcounter{figure}{34}
\setcounter{table}{0}
\setcounter{parentequation}{0}
\setcounter{vrcnt}{0}
\setcounter{pp@next@reset}{1}
\setcounter{@fnserial}{0}
\setcounter{FancyVerbLine}{0}
\setcounter{endNonectr}{50}
\setcounter{currNonectr}{0}
\setcounter{r@tfl@t}{0}
\setcounter{subfigure}{0}
\setcounter{lofdepth}{1}
\setcounter{subtable}{0}
\setcounter{lotdepth}{1}
\setcounter{@contsubnum}{2}
\setcounter{newflo@tctr}{4}
\setcounter{lstnumber}{1}
\setcounter{Item}{22}
\setcounter{Hfootnote}{0}
\setcounter{Hy@AnnotLevel}{0}
\setcounter{bookmark@seq@number}{44}
\setcounter{NAT@ctr}{0}
\setcounter{float@type}{8}
\setcounter{currdefinitionctr}{0}
\setcounter{enddefinitionctr}{0}
\setcounter{definition}{0}
\setcounter{currexamplectr}{0}
\setcounter{endexamplectr}{0}
\setcounter{example}{0}
\setcounter{curralgorithmctr}{0}
\setcounter{endalgorithmctr}{0}
\setcounter{algorithm}{0}
\setcounter{currtheoremctr}{0}
\setcounter{endtheoremctr}{0}
\setcounter{theorem}{0}
\setcounter{curraxiomctr}{0}
\setcounter{endaxiomctr}{0}
\setcounter{axiom}{0}
\setcounter{currpropositionctr}{0}
\setcounter{endpropositionctr}{0}
\setcounter{currpropertyctr}{0}
\setcounter{endpropertyctr}{0}
\setcounter{property}{0}
\setcounter{currlemmactr}{0}
\setcounter{endlemmactr}{0}
\setcounter{currcorollaryctr}{0}
\setcounter{endcorollaryctr}{0}
\setcounter{corollary}{0}
\setcounter{currremarkctr}{0}
\setcounter{endremarkctr}{0}
\setcounter{remark}{0}
\setcounter{lstlisting}{0}
\setcounter{section@level}{0}
}
