\relax 
\providecommand\hyper@newdestlabel[2]{}
\citation{关醒凡2011现代泵理论与设计,秦武2007核反应堆冷却剂循环泵的现状及发展}
\citation{关醒凡2011现代泵理论与设计}
\citation{秦武2007核反应堆冷却剂循环泵的现状及发展}
\citation{王福军2004计算流体动力学分析}
\citation{王福军2004计算流体动力学分析}
\citation{王承尧2000计算流体力学及其并行算法}
\citation{王承尧2000计算流体力学及其并行算法}
\citation{周天孝1999CFD}
\citation{周天孝1999CFD}
\FN@pp@footnotehinttrue 
\@writefile{toc}{\contentsline {chapter}{引　　言}{1}{chapter*.4}}
\newlabel{chap00}{{}{1}{\hfill 引　　言 \hfill }{chapter*.4}{}}
\@writefile{toc}{\contentsline {section}{\numberline {0.1}绪论}{1}{section.0.1}}
\@writefile{toc}{\contentsline {subsection}{\numberline {0.1.1}学位论文研究背景、目的和意义}{1}{subsection.0.1.1}}
\citation{王虎2008内燃机缸体,Malik2012Experimental}
\citation{王虎2008内燃机缸体}
\citation{Malik2012Experimental}
\citation{陶文铨2003数值传热学,Lindstr2010A}
\citation{陶文铨2003数值传热学}
\citation{Lindstr2010A}
\citation{Martin2012Analysis}
\citation{Martin2012Analysis}
\citation{Das2006Conjugate}
\citation{Das2006Conjugate}
\citation{Morel1985Effect}
\citation{Morel1985Effect}
\citation{Assanis1985Computer}
\citation{Assanis1985Computer}
\citation{张泠2002共轭传热室内环境数值预测模型}
\citation{张泠2002共轭传热室内环境数值预测模型}
\citation{高升华2008基于共轭传热的异步电动机定子温度场数值计算}
\citation{高升华2008基于共轭传热的异步电动机定子温度场数值计算}
\citation{Liu2005Coupling}
\citation{Liu2005Coupling}
\citation{石海2013烟气轮机动叶轮盘冷却共轭传热数值分析}
\citation{石海2013烟气轮机动叶轮盘冷却共轭传热数值分析}
\citation{Jeon2012Effect,H1994STREAMLINE}
\citation{Jeon2012Effect}
\citation{H1994STREAMLINE}
\citation{Nordstr2013Conjugate}
\citation{Nordstr2013Conjugate}
\citation{A2013Simulation}
\citation{A2013Simulation}
\citation{Li2013A,Alhatim2016Simulation,Mazaheri2016Turbine,Duchaine2013Large}
\citation{Li2013A}
\citation{Alhatim2016Simulation}
\citation{Mazaheri2016Turbine}
\citation{Duchaine2013Large}
\@writefile{toc}{\contentsline {subsection}{\numberline {0.1.2}共轭传热技术的发展}{2}{subsection.0.1.2}}
\@writefile{toc}{\contentsline {subsection}{\numberline {0.1.3}研究内容}{3}{subsection.0.1.3}}
\FN@pp@footnotehinttrue 
\@setckpt{body/chap00}{
\setcounter{page}{4}
\setcounter{equation}{0}
\setcounter{enumi}{0}
\setcounter{enumii}{0}
\setcounter{enumiii}{0}
\setcounter{enumiv}{0}
\setcounter{footnote}{0}
\setcounter{mpfootnote}{0}
\setcounter{part}{0}
\setcounter{chapter}{0}
\setcounter{section}{1}
\setcounter{subsection}{3}
\setcounter{subsubsection}{0}
\setcounter{paragraph}{0}
\setcounter{subparagraph}{0}
\setcounter{figure}{0}
\setcounter{table}{0}
\setcounter{parentequation}{0}
\setcounter{vrcnt}{0}
\setcounter{pp@next@reset}{1}
\setcounter{@fnserial}{0}
\setcounter{FancyVerbLine}{0}
\setcounter{endNonectr}{4}
\setcounter{currNonectr}{0}
\setcounter{r@tfl@t}{0}
\setcounter{subfigure}{0}
\setcounter{lofdepth}{1}
\setcounter{subtable}{0}
\setcounter{lotdepth}{1}
\setcounter{@contsubnum}{0}
\setcounter{newflo@tctr}{4}
\setcounter{lstnumber}{1}
\setcounter{Item}{0}
\setcounter{Hfootnote}{0}
\setcounter{Hy@AnnotLevel}{0}
\setcounter{bookmark@seq@number}{7}
\setcounter{NAT@ctr}{0}
\setcounter{currdefinitionctr}{0}
\setcounter{enddefinitionctr}{0}
\setcounter{definition}{0}
\setcounter{currexamplectr}{0}
\setcounter{endexamplectr}{0}
\setcounter{example}{0}
\setcounter{curralgorithmctr}{0}
\setcounter{endalgorithmctr}{0}
\setcounter{algorithm}{0}
\setcounter{currtheoremctr}{0}
\setcounter{endtheoremctr}{0}
\setcounter{theorem}{0}
\setcounter{curraxiomctr}{0}
\setcounter{endaxiomctr}{0}
\setcounter{axiom}{0}
\setcounter{currpropositionctr}{0}
\setcounter{endpropositionctr}{0}
\setcounter{currpropertyctr}{0}
\setcounter{endpropertyctr}{0}
\setcounter{property}{0}
\setcounter{currlemmactr}{0}
\setcounter{endlemmactr}{0}
\setcounter{currcorollaryctr}{0}
\setcounter{endcorollaryctr}{0}
\setcounter{corollary}{0}
\setcounter{currremarkctr}{0}
\setcounter{endremarkctr}{0}
\setcounter{remark}{0}
\setcounter{lstlisting}{0}
\setcounter{section@level}{0}
}
