\relax 
\providecommand\hyper@newdestlabel[2]{}
\FN@pp@footnotehinttrue 
\@writefile{toc}{\contentsline {chapter}{\numberline {4}低压缸温度场数值求解}{28}{chapter.4}}
\@writefile{lof}{\addvspace {10\p@ }}
\@writefile{lot}{\addvspace {10\p@ }}
\@writefile{toc}{\contentsline {section}{\numberline {4.1}材料设置}{28}{section.4.1}}
\@writefile{toc}{\contentsline {subsection}{\numberline {4.1.1}蒸汽}{28}{subsection.4.1.1}}
\@writefile{lof}{\contentsline {figure}{\numberline {4.1}{\ignorespaces 图}}{28}{figure.4.1}}
\newlabel{fig:水蒸气温熵图}{{4.1}{28}{蒸汽}{figure.4.1}{}}
\citation{RN45}
\citation{RN45}
\citation{RN46}
\citation{RN46}
\@writefile{lof}{\contentsline {figure}{\numberline {4.2}{\ignorespaces 图}}{30}{figure.4.2}}
\newlabel{fig:主流道干度变化}{{4.2}{30}{蒸汽}{figure.4.2}{}}
\@writefile{toc}{\contentsline {subsection}{\numberline {4.1.2}汽缸及持环}{30}{subsection.4.1.2}}
\@writefile{lot}{\contentsline {table}{\numberline {4.1}{\ignorespaces 表}}{30}{table.4.1}}
\newlabel{tab:20g热导率}{{4.1}{30}{汽缸及持环}{table.4.1}{}}
\@writefile{lot}{\contentsline {table}{\numberline {4.2}{\ignorespaces 表}}{30}{table.4.2}}
\newlabel{tab:20g比热容}{{4.2}{30}{汽缸及持环}{table.4.2}{}}
\@writefile{toc}{\contentsline {section}{\numberline {4.2}交界面模型}{31}{section.4.2}}
\@writefile{toc}{\contentsline {subsection}{\numberline {4.2.1}流固与固固交界面}{31}{subsection.4.2.1}}
\@writefile{toc}{\contentsline {subsection}{\numberline {4.2.2}流体域内交界面}{31}{subsection.4.2.2}}
\@writefile{lof}{\contentsline {figure}{\numberline {4.3}{\ignorespaces 图}}{32}{figure.4.3}}
\newlabel{fig:交界面示意图}{{4.3}{32}{流体域内交界面}{figure.4.3}{}}
\@writefile{toc}{\contentsline {section}{\numberline {4.3}边界层处理}{32}{section.4.3}}
\@writefile{lof}{\contentsline {figure}{\numberline {4.4}{\ignorespaces 图}}{32}{figure.4.4}}
\newlabel{fig:壁面函数法与近壁面模型}{{4.4}{32}{边界层处理}{figure.4.4}{}}
\citation{RN47}
\citation{RN47}
\@writefile{toc}{\contentsline {section}{\numberline {4.4}本章小结}{34}{section.4.4}}
\FN@pp@footnotehinttrue 
\@setckpt{body/chap04}{
\setcounter{page}{36}
\setcounter{equation}{16}
\setcounter{enumi}{3}
\setcounter{enumii}{0}
\setcounter{enumiii}{0}
\setcounter{enumiv}{0}
\setcounter{footnote}{0}
\setcounter{mpfootnote}{0}
\setcounter{part}{0}
\setcounter{chapter}{4}
\setcounter{section}{4}
\setcounter{subsection}{0}
\setcounter{subsubsection}{0}
\setcounter{paragraph}{0}
\setcounter{subparagraph}{0}
\setcounter{figure}{4}
\setcounter{table}{2}
\setcounter{parentequation}{0}
\setcounter{vrcnt}{0}
\setcounter{pp@next@reset}{1}
\setcounter{@fnserial}{0}
\setcounter{FancyVerbLine}{0}
\setcounter{endNonectr}{48}
\setcounter{currNonectr}{0}
\setcounter{r@tfl@t}{0}
\setcounter{subfigure}{0}
\setcounter{lofdepth}{1}
\setcounter{subtable}{0}
\setcounter{lotdepth}{1}
\setcounter{@contsubnum}{2}
\setcounter{newflo@tctr}{4}
\setcounter{lstnumber}{1}
\setcounter{Item}{22}
\setcounter{Hfootnote}{0}
\setcounter{Hy@AnnotLevel}{0}
\setcounter{bookmark@seq@number}{33}
\setcounter{NAT@ctr}{0}
\setcounter{float@type}{8}
\setcounter{currdefinitionctr}{0}
\setcounter{enddefinitionctr}{0}
\setcounter{definition}{0}
\setcounter{currexamplectr}{0}
\setcounter{endexamplectr}{0}
\setcounter{example}{0}
\setcounter{curralgorithmctr}{0}
\setcounter{endalgorithmctr}{0}
\setcounter{algorithm}{0}
\setcounter{currtheoremctr}{0}
\setcounter{endtheoremctr}{0}
\setcounter{theorem}{0}
\setcounter{curraxiomctr}{0}
\setcounter{endaxiomctr}{0}
\setcounter{axiom}{0}
\setcounter{currpropositionctr}{0}
\setcounter{endpropositionctr}{0}
\setcounter{currpropertyctr}{0}
\setcounter{endpropertyctr}{0}
\setcounter{property}{0}
\setcounter{currlemmactr}{0}
\setcounter{endlemmactr}{0}
\setcounter{currcorollaryctr}{0}
\setcounter{endcorollaryctr}{0}
\setcounter{corollary}{0}
\setcounter{currremarkctr}{0}
\setcounter{endremarkctr}{0}
\setcounter{remark}{0}
\setcounter{lstlisting}{0}
\setcounter{section@level}{0}
}
