\relax 
\providecommand\hyper@newdestlabel[2]{}
\citation{RN35}
\citation{RN35}
\citation{RN36}
\citation{RN36}
\FN@pp@footnotehinttrue 
\@writefile{toc}{\contentsline {chapter}{\numberline {2}流固共轭传热算法}{5}{chapter.2}}
\@writefile{lof}{\addvspace {10\p@ }}
\@writefile{lot}{\addvspace {10\p@ }}
\newlabel{chap02}{{2}{5}{流固共轭传热算法}{chapter.2}{}}
\@writefile{toc}{\contentsline {section}{\numberline {2.1}低压缸共轭传热解法概述}{5}{section.2.1}}
\@writefile{lof}{\contentsline {figure}{\numberline {2.1}{\ignorespaces 图}}{6}{figure.2.1}}
\newlabel{fig:共轭传热问题整体求解流程}{{2.1}{6}{低压缸共轭传热解法概述}{figure.2.1}{}}
\@writefile{toc}{\contentsline {section}{\numberline {2.2}控制方程组}{6}{section.2.2}}
\citation{RN37}
\citation{RN37}
\citation{RN38}
\citation{RN38}
\newlabel{eq:2.5}{{2.5}{7}{控制方程组}{equation.2.2.5}{}}
\newlabel{eq:2.7}{{2.7}{7}{控制方程组}{equation.2.2.7}{}}
\citation{RN39}
\citation{RN39}
\@writefile{lot}{\contentsline {table}{\numberline {2.1}{\ignorespaces 表}}{8}{table.2.1}}
\newlabel{tab:The values of the constants in the $ k-\varepsilon $ model}{{2.1}{8}{控制方程组}{table.2.1}{}}
\citation{RN40}
\citation{RN40}
\citation{RN41}
\citation{RN41}
\citation{RN42}
\citation{RN42}
\newlabel{eq:2.15}{{2.15}{9}{控制方程组}{equation.2.2.15}{}}
\@writefile{lot}{\contentsline {table}{\numberline {2.2}{\ignorespaces 表}}{9}{table.2.2}}
\newlabel{tab:2.2}{{2.2}{9}{控制方程组}{table.2.2}{}}
\@writefile{toc}{\contentsline {section}{\numberline {2.3}离散化和数值求解过程}{9}{section.2.3}}
\citation{RN43}
\citation{RN43}
\@writefile{lof}{\contentsline {figure}{\numberline {2.2}{\ignorespaces 图}}{10}{figure.2.2}}
\newlabel{fig:二维计算区域离散}{{2.2}{10}{离散化和数值求解过程}{figure.2.2}{}}
\newlabel{eq:2.17}{{2.17}{10}{离散化和数值求解过程}{equation.2.3.17}{}}
\@writefile{lof}{\contentsline {figure}{\numberline {2.3}{\ignorespaces 图}}{11}{figure.2.3}}
\newlabel{fig:三维控制体积}{{2.3}{11}{离散化和数值求解过程}{figure.2.3}{}}
\newlabel{eq:2.20}{{2.20}{11}{离散化和数值求解过程}{equation.2.3.20}{}}
\newlabel{eq:2.21}{{2.21}{11}{离散化和数值求解过程}{equation.2.3.21}{}}
\newlabel{eq：2.22}{{2.22}{12}{离散化和数值求解过程}{equation.2.3.22}{}}
\@writefile{toc}{\contentsline {section}{\numberline {2.4}本章小结}{12}{section.2.4}}
\FN@pp@footnotehinttrue 
\@setckpt{body/chap02}{
\setcounter{page}{13}
\setcounter{equation}{22}
\setcounter{enumi}{4}
\setcounter{enumii}{0}
\setcounter{enumiii}{0}
\setcounter{enumiv}{0}
\setcounter{footnote}{0}
\setcounter{mpfootnote}{0}
\setcounter{part}{0}
\setcounter{chapter}{2}
\setcounter{section}{4}
\setcounter{subsection}{0}
\setcounter{subsubsection}{0}
\setcounter{paragraph}{0}
\setcounter{subparagraph}{0}
\setcounter{figure}{3}
\setcounter{table}{2}
\setcounter{parentequation}{0}
\setcounter{vrcnt}{0}
\setcounter{pp@next@reset}{1}
\setcounter{@fnserial}{0}
\setcounter{FancyVerbLine}{0}
\setcounter{endNonectr}{29}
\setcounter{currNonectr}{0}
\setcounter{r@tfl@t}{0}
\setcounter{subfigure}{0}
\setcounter{lofdepth}{1}
\setcounter{subtable}{0}
\setcounter{lotdepth}{1}
\setcounter{@contsubnum}{0}
\setcounter{newflo@tctr}{4}
\setcounter{lstnumber}{1}
\setcounter{Item}{9}
\setcounter{Hfootnote}{0}
\setcounter{Hy@AnnotLevel}{0}
\setcounter{bookmark@seq@number}{11}
\setcounter{NAT@ctr}{0}
\setcounter{float@type}{8}
\setcounter{currdefinitionctr}{0}
\setcounter{enddefinitionctr}{0}
\setcounter{definition}{0}
\setcounter{currexamplectr}{0}
\setcounter{endexamplectr}{0}
\setcounter{example}{0}
\setcounter{curralgorithmctr}{0}
\setcounter{endalgorithmctr}{0}
\setcounter{algorithm}{0}
\setcounter{currtheoremctr}{0}
\setcounter{endtheoremctr}{0}
\setcounter{theorem}{0}
\setcounter{curraxiomctr}{0}
\setcounter{endaxiomctr}{0}
\setcounter{axiom}{0}
\setcounter{currpropositionctr}{0}
\setcounter{endpropositionctr}{0}
\setcounter{currpropertyctr}{0}
\setcounter{endpropertyctr}{0}
\setcounter{property}{0}
\setcounter{currlemmactr}{0}
\setcounter{endlemmactr}{0}
\setcounter{currcorollaryctr}{0}
\setcounter{endcorollaryctr}{0}
\setcounter{corollary}{0}
\setcounter{currremarkctr}{0}
\setcounter{endremarkctr}{0}
\setcounter{remark}{0}
\setcounter{lstlisting}{0}
\setcounter{section@level}{0}
}
